{
    "dev": {
        "envId": "8992da55-3a3d-568e-ee06-272564c76392",
        "name": "dev",
        "properties": {
            "production": false,
            "baseUrl": " http://localhost:3000/bhive-art/",
            "tenantName": "neutrinos-rt",
            "appName": "blogger",
            "namespace": "com.neutrinos-rt.blogger",
            "isNotificationEnabled": true,
            "googleMapKey": "AIzaSyCSTnVwijjv0CFRA4MEeS-H6PAQc87LEoU",
            "firebaseSenderId": "FIREBASE_SENDER_ID",
            "firebaseAuthKey": "FIREBASE_AUTH_KEY",
            "authDomain": "FIREBASE_AUTH_DOMAIN",
            "databaseURL": "FIREBASE_DATABASE_URL",
            "storageBucket": "FIREBASE_STORAGE_BUCKET",
            "messagingSenderId": "FIREBASE_SENDER_ID",
            "appDataSource": "telesure-rt",
            "appAuthenticationStrategy": "localAuth",
            "basicAuthUser": "username",
            "basicAuthPassword": "password",
            "useDefaultExceptionUI": true
        }
    },
    "prod": {
        "envId": "41ff2c4b-7fa3-027c-8644-236a4f12dd85",
        "name": "prod",
        "properties": {
            "production": true,
            "baseUrl": " http://localhost:3000/bhive-art/",
            "tenantName": "telesure-rt",
            "appName": "blogger",
            "namespace": "com.telesure-rt.blogger",
            "isNotificationEnabled": true,
            "googleMapKey": "AIzaSyCSTnVwijjv0CFRA4MEeS-H6PAQc87LEoU",
            "firebaseSenderId": "FIREBASE_SENDER_ID",
            "firebaseAuthKey": "FIREBASE_AUTH_KEY",
            "authDomain": "FIREBASE_AUTH_DOMAIN",
            "databaseURL": "FIREBASE_DATABASE_URL",
            "storageBucket": "FIREBASE_STORAGE_BUCKET",
            "messagingSenderId": "FIREBASE_SENDER_ID",
            "appDataSource": "neutrinos-rt",
            "appAuthenticationStrategy": "localAuth",
            "basicAuthUser": "username",
            "basicAuthPassword": "password",
            "useDefaultExceptionUI": true
        }
    }
}
