{
    "appPageId": "902bbb78-e806-79fe-3b90-ce94b7129738",
    "appPageName": "dashboard",
    "componentName": "dashboardComponent",
    "selectorName": "bh-dashboard",
    "htmlFileName": "dashboard.template.html",
    "tsFileName": "dashboard.component.ts",
    "bkd": {
        "designerHtml": "",
        "designerReference": {},
        "ts": ""
    }
}
